{
  "AWSEBDockerrunVersion": 2,
  "authentication": {
    "bucket": "byteb",
    "key": "gitlab_docker_cfg"
  },
  "containerDefinitions": [
    {
      "name": "fibonacci-handler",
      "image": "registry.gitlab.com/ravirajawasthi/fibonacci-kubernetes/fibonacci-handler",
      "hostname": "fibonacci-handler",
      "links": ["fibonacci-redis-listener", "redis", "postgres"],
      "environment": [
        {
          "QUEUE_NAME": "fibonacci",
          "REDIS_HOST": "redis",
          "REDIS_PORT": "6379",
          "JDBC_URL": "jdbc:postgresql://postgres:5432/postgres",
          "DB_USER": "manager",
          "DB_PASSWORD": "swimming"
        }
      ],
      "memory": 128,
      "dependsOn": [
        {
          "containerName": "fibonacci-redis-handler",
          "condition": "START"
        },
        {
          "containerName": "postgres",
          "condition": "START"
        }
      ]
    },
    {
      "name": "fibonacci-redis-listener",
      "image": "registry.gitlab.com/ravirajawasthi/fibonacci-kubernetes/fibonacci-redis-listener",
      "hostname": "fibonacci-redis-listener",
      "environment": [
        {
          "QUEUE_NAME": "fibonacci",
          "REDIS_HOST": "redis",
          "REDIS_PORT": "6379"
        }
      ],
      "links": ["redis"],
      "memory": 128,
      "dependsOn": [
        {
          "containerName": "redis",
          "condition": "START"
        }
      ]
    },
    {
      "name": "fibonacci-client",
      "image": "registry.gitlab.com/ravirajawasthi/fibonacci-kubernetes/fibonacci-client",
      "hostname": "fibonacci-client",
      "memory": 128,
      "dependsOn": [
        {
          "containerName": "fibonacci-handler",
          "condition": "START"
        }
      ]
    },
    {
      "name": "fibonacci-nginx",
      "image": "registry.gitlab.com/ravirajawasthi/fibonacci-kubernetes/fibonacci-gateway",
      "essential": true,
      "portMappings": [
        {
          "containerPort": 80,
          "hostPort": 80
        }
      ],
      "dependsOn": [
        {
          "containerName": "fibonacci-handler",
          "condition": "START"
        },
        {
          "containerName": "fibonacci-client",
          "condition": "START"
        }
      ],
      "links": ["fibonacci-handler", "fibonacci-client"]
    },
    {
      "name": "postgres",
      "hostname": "postgres",
      "image": "docker.io/postgres:alpine",
      "environment": [
        {
          "POSTGRES_USER": "manager",
          "POSTGRES_PASSWORD": "swimming"
        }
      ]
    },
    {
      "name": "redis",
      "hostname": "redis",
      "image": "docker.io/redis:latest"
    }
  ]
}